\relax 
\providecommand{\PAX@DestReq}[2]{}
\providecommand{\PAX@DestProv}[2]{}
\providecommand\zref@newlabel[2]{}
\providecommand\hyper@newdestlabel[2]{}
\providecommand\BKM@entry[2]{}
\catcode `:\active 
\catcode `;\active 
\catcode `!\active 
\catcode `?\active 
\abx@aux@sortscheme{nyt}
\abx@aux@sortnamekeyscheme{global}
\providecommand\HyperFirstAtBeginDocument{\AtBeginDocument}
\HyperFirstAtBeginDocument{\ifx\hyper@anchor\@undefined
\global\let\oldcontentsline\contentsline
\gdef\contentsline#1#2#3#4{\oldcontentsline{#1}{#2}{#3}}
\global\let\oldnewlabel\newlabel
\gdef\newlabel#1#2{\newlabelxx{#1}#2}
\gdef\newlabelxx#1#2#3#4#5#6{\oldnewlabel{#1}{{#2}{#3}}}
\AtEndDocument{\ifx\hyper@anchor\@undefined
\let\contentsline\oldcontentsline
\let\newlabel\oldnewlabel
\fi}
\fi}
\global\let\hyper@last\relax 
\gdef\HyperFirstAtBeginDocument#1{#1}
\providecommand\HyField@AuxAddToFields[1]{}
\providecommand\HyField@AuxAddToCoFields[2]{}
\gdef\pagesLTS@loaded{p@gesLTSnotlo@ded}
\BKM@entry{id=1,open,dest={7469746C65706167652E30},srcline={36}}{5C3337365C3337375C303030505C303030615C303030675C303030655C3030305C3034305C303030645C303030655C3030305C3034305C303030745C303030695C303030745C303030725C30303065}
\newlabel{pagesLTS.0}{{}{A}{}{page.A}{}}
\newlabel{pagesLTS.0.local}{{}{1}{}{page.A}{}}
\providecommand \oddpage@label [2]{}
\reset@newl@bel
\providecommand\@newglossary[4]{}
\@newglossary{main}{glg}{gls}{glo}
\@newglossary{acronym}{alg}{acr}{acn}
\providecommand\@glsorder[1]{}
\providecommand\@istfilename[1]{}
\@istfilename{rapport_projet_GUILLOT_SANOUILLER.ist}
\@glsorder{word}
\@writefile{toc}{\boolfalse {citerequest}\boolfalse {citetracker}\boolfalse {pagetracker}\boolfalse {backtracker}\relax }
\@writefile{lof}{\boolfalse {citerequest}\boolfalse {citetracker}\boolfalse {pagetracker}\boolfalse {backtracker}\relax }
\@writefile{lot}{\boolfalse {citerequest}\boolfalse {citetracker}\boolfalse {pagetracker}\boolfalse {backtracker}\relax }
\select@language{french}
\@writefile{toc}{\defcounter {refsection}{0}\relax }\@writefile{toc}{\select@language{french}}
\@writefile{lof}{\defcounter {refsection}{0}\relax }\@writefile{lof}{\select@language{french}}
\@writefile{lot}{\defcounter {refsection}{0}\relax }\@writefile{lot}{\select@language{french}}
\newlabel{pagesLTS.Alph.1}{{}{A}{}{page.A}{}}
\newlabel{pagesLTS.Alph.1.local}{{}{1}{}{page.A}{}}
\newlabel{pagesLTS.Alph}{{}{A}{}{page.A}{}}
\newlabel{pagesLTS.Alph.local}{{}{1}{}{page.A}{}}
\pagesLTS@ifcounter{pagesLTS.Alph.1.local.cnt}
\setcounter{pagesLTS.Alph.1.local.cnt}{1}
\BKM@entry{id=2,open,dest={636861707465722A2E31},srcline={36}}{5C3337365C3337375C3030304C5C303030695C303030735C303030745C303030655C3030305C3034305C303030645C303030655C303030735C3030305C3034305C303030695C3030306E5C303030745C303030655C303030725C303030765C303030655C3030306E5C303030615C3030306E5C303030745C30303073}
\gdef \LT@i {\LT@entry 
    {1}{116.62987pt}\LT@entry 
    {1}{206.22446pt}\LT@entry 
    {1}{132.38979pt}}
\@writefile{toc}{\defcounter {refsection}{0}\relax }\@writefile{toc}{\contentsline {chapter}{Liste des intervenants}{a}{chapter*.1}}
\BKM@entry{id=3,open,dest={636861707465722A2E32},srcline={36}}{5C3337365C3337375C303030415C303030765C303030655C303030725C303030745C303030695C303030735C303030735C303030655C3030306D5C303030655C3030306E5C30303074}
\@writefile{toc}{\defcounter {refsection}{0}\relax }\@writefile{toc}{\contentsline {chapter}{Avertissement}{b}{chapter*.2}}
\BKM@entry{id=4,open,dest={636861707465722A2E33},srcline={36}}{5C3337365C3337375C303030505C3030306F5C303030755C303030725C3030305C3034305C303030635C303030695C303030745C303030655C303030725C3030305C3034305C303030635C303030655C3030305C3034305C303030645C3030306F5C303030635C303030755C3030306D5C303030655C3030306E5C30303074}
\@writefile{toc}{\defcounter {refsection}{0}\relax }\@writefile{toc}{\contentsline {chapter}{Pour citer ce document}{c}{chapter*.3}}
\newlabel{pagesLTS.alph.1}{{}{c}{}{page.c}{}}
\newlabel{pagesLTS.alph.1.local}{{}{3}{}{page.c}{}}
\newlabel{pagesLTS.alph}{{}{c}{}{page.c}{}}
\newlabel{pagesLTS.alph.local}{{}{3}{}{page.c}{}}
\pagesLTS@ifcounter{pagesLTS.alph.1.local.cnt}
\setcounter{pagesLTS.alph.1.local.cnt}{3}
\BKM@entry{id=5,open,dest={636861707465722A2E34},srcline={36}}{5C3337365C3337375C303030545C303030615C303030625C3030306C5C303030655C3030305C3034305C303030645C303030655C303030735C3030305C3034305C3030306D5C303030615C303030745C303030695C3030305C3335305C303030725C303030655C30303073}
\@writefile{toc}{\defcounter {refsection}{0}\relax }\@writefile{toc}{\contentsline {chapter}{Table des mati\`eres\markboth {Table des mati\`eres}{Table des mati\`eres}}{i}{chapter*.4}}
\BKM@entry{id=6,open,dest={636861707465722A2E35},srcline={36}}{5C3337365C3337375C303030545C303030615C303030625C3030306C5C303030655C3030305C3034305C303030645C303030655C303030735C3030305C3034305C303030665C303030695C303030675C303030755C303030725C303030655C30303073}
\@writefile{toc}{\defcounter {refsection}{0}\relax }\@writefile{toc}{\contentsline {chapter}{Table des figures}{iii}{chapter*.5}}
\newlabel{pagesLTS.roman.1}{{}{iii}{}{page.iii}{}}
\newlabel{pagesLTS.roman.1.local}{{}{3}{}{page.iii}{}}
\newlabel{pagesLTS.roman}{{}{iii}{}{page.iii}{}}
\newlabel{pagesLTS.roman.local}{{}{3}{}{page.iii}{}}
\pagesLTS@ifcounter{pagesLTS.roman.1.local.cnt}
\setcounter{pagesLTS.roman.1.local.cnt}{3}
\BKM@entry{id=7,open,dest={636861707465722E31},srcline={39}}{5C3337365C3337375C303030315C3030305C3034305C303030435C3030306F5C3030306E5C303030745C303030655C303030785C303030745C303030655C3030305C3034305C303030645C303030655C3030305C3034305C3030306C5C303030615C3030305C3034305C303030725C3030305C3335315C303030615C3030306C5C303030695C303030735C303030615C303030745C303030695C3030306F5C3030306E}
\BKM@entry{id=8,open,dest={73656374696F6E2E312E31},srcline={54}}{5C3337365C3337375C303030315C3030305C3034305C3030304F5C303030625C3030306A5C303030655C303030635C303030745C303030695C303030665C30303073}
\BKM@entry{id=9,open,dest={73656374696F6E2E312E32},srcline={70}}{5C3337365C3337375C303030325C3030305C3034305C303030485C303030795C303030705C3030306F5C303030745C303030685C3030305C3335305C303030735C303030655C30303073}
\@writefile{toc}{\defcounter {refsection}{0}\relax }\@writefile{toc}{\contentsline {chapter}{\numberline {1}Contexte de la r\IeC {\'e}alisation}{1}{chapter.1}}
\@writefile{lof}{\defcounter {refsection}{0}\relax }\@writefile{lof}{\addvspace {10\p@ }}
\@writefile{lot}{\defcounter {refsection}{0}\relax }\@writefile{lot}{\addvspace {10\p@ }}
\@writefile{loa}{\defcounter {refsection}{0}\relax }\@writefile{loa}{\addvspace {10\p@ }}
\@writefile{toc}{\defcounter {refsection}{0}\relax }\@writefile{toc}{\contentsline {section}{\numberline {1}Objectifs}{1}{section.1.1}}
\BKM@entry{id=10,open,dest={73656374696F6E2E312E33},srcline={81}}{5C3337365C3337375C303030335C3030305C3034305C303030425C303030615C303030735C303030655C303030735C3030305C3034305C3030306D5C3030305C3335315C303030745C303030685C3030306F5C303030645C3030306F5C3030306C5C3030306F5C303030675C303030695C303030715C303030755C303030655C30303073}
\@writefile{toc}{\defcounter {refsection}{0}\relax }\@writefile{toc}{\contentsline {section}{\numberline {2}Hypoth\IeC {\`e}ses}{2}{section.1.2}}
\@writefile{toc}{\defcounter {refsection}{0}\relax }\@writefile{toc}{\contentsline {section}{\numberline {3}Bases m\IeC {\'e}thodologiques}{2}{section.1.3}}
\BKM@entry{id=11,open,dest={636861707465722E32},srcline={90}}{5C3337365C3337375C303030325C3030305C3034305C303030445C303030655C303030735C303030635C303030725C303030695C303030705C303030745C303030695C3030306F5C3030306E5C3030305C3034305C303030675C3030305C3335315C3030306E5C3030305C3335315C303030725C303030615C3030306C5C30303065}
\BKM@entry{id=12,open,dest={73656374696F6E2E322E31},srcline={91}}{5C3337365C3337375C303030315C3030305C3034305C303030455C3030306E5C303030765C303030695C303030725C3030306F5C3030306E5C3030306E5C303030655C3030306D5C303030655C3030306E5C303030745C3030305C3034305C303030645C303030755C3030305C3034305C303030705C303030725C3030306F5C3030306A5C303030655C30303074}
\BKM@entry{id=13,open,dest={73656374696F6E2E322E32},srcline={102}}{5C3337365C3337375C303030325C3030305C3034305C303030435C303030615C303030725C303030615C303030635C303030745C3030305C3335315C303030725C303030695C303030735C303030745C303030695C303030715C303030755C303030655C303030735C3030305C3034305C303030645C303030655C303030735C3030305C3034305C303030755C303030745C303030695C3030306C5C303030695C303030735C303030615C303030745C303030655C303030755C303030725C30303073}
\BKM@entry{id=14,open,dest={73656374696F6E2E322E33},srcline={112}}{5C3337365C3337375C303030335C3030305C3034305C303030465C3030306F5C3030306E5C303030635C303030745C303030695C3030306F5C3030306E5C3030306E5C303030615C3030306C5C303030695C303030745C3030305C3335315C303030735C3030305C3034305C303030645C303030755C3030305C3034305C303030735C303030795C303030735C303030745C3030305C3335305C3030306D5C30303065}
\@writefile{toc}{\defcounter {refsection}{0}\relax }\@writefile{toc}{\contentsline {chapter}{\numberline {2}Description g\IeC {\'e}n\IeC {\'e}rale}{3}{chapter.2}}
\@writefile{lof}{\defcounter {refsection}{0}\relax }\@writefile{lof}{\addvspace {10\p@ }}
\@writefile{lot}{\defcounter {refsection}{0}\relax }\@writefile{lot}{\addvspace {10\p@ }}
\@writefile{loa}{\defcounter {refsection}{0}\relax }\@writefile{loa}{\addvspace {10\p@ }}
\@writefile{toc}{\defcounter {refsection}{0}\relax }\@writefile{toc}{\contentsline {section}{\numberline {1}Environnement du projet}{3}{section.2.1}}
\@writefile{toc}{\defcounter {refsection}{0}\relax }\@writefile{toc}{\contentsline {section}{\numberline {2}Caract\IeC {\'e}ristiques des utilisateurs}{3}{section.2.2}}
\@writefile{toc}{\defcounter {refsection}{0}\relax }\@writefile{toc}{\contentsline {section}{\numberline {3}Fonctionnalit\IeC {\'e}s du syst\IeC {\`e}me}{3}{section.2.3}}
\select@language{english}
\@writefile{toc}{\defcounter {refsection}{0}\relax }\@writefile{toc}{\select@language{english}}
\@writefile{lof}{\defcounter {refsection}{0}\relax }\@writefile{lof}{\select@language{english}}
\@writefile{lot}{\defcounter {refsection}{0}\relax }\@writefile{lot}{\select@language{english}}
\select@language{french}
\@writefile{toc}{\defcounter {refsection}{0}\relax }\@writefile{toc}{\select@language{french}}
\@writefile{lof}{\defcounter {refsection}{0}\relax }\@writefile{lof}{\select@language{french}}
\@writefile{lot}{\defcounter {refsection}{0}\relax }\@writefile{lot}{\select@language{french}}
\select@language{english}
\@writefile{toc}{\defcounter {refsection}{0}\relax }\@writefile{toc}{\select@language{english}}
\@writefile{lof}{\defcounter {refsection}{0}\relax }\@writefile{lof}{\select@language{english}}
\@writefile{lot}{\defcounter {refsection}{0}\relax }\@writefile{lot}{\select@language{english}}
\select@language{french}
\@writefile{toc}{\defcounter {refsection}{0}\relax }\@writefile{toc}{\select@language{french}}
\@writefile{lof}{\defcounter {refsection}{0}\relax }\@writefile{lof}{\select@language{french}}
\@writefile{lot}{\defcounter {refsection}{0}\relax }\@writefile{lot}{\select@language{french}}
\BKM@entry{id=15,open,dest={73656374696F6E2E322E34},srcline={131}}{5C3337365C3337375C303030345C3030305C3034305C303030535C303030745C303030725C303030755C303030635C303030745C303030755C303030725C303030655C3030305C3034305C303030675C3030305C3335315C3030306E5C3030305C3335315C303030725C303030615C3030306C5C303030655C3030305C3034305C303030645C303030755C3030305C3034305C303030735C303030795C303030735C303030745C3030305C3335305C3030306D5C30303065}
\providecommand*\caption@xref[2]{\@setref\relax\@undefined{#1}}
\@writefile{lof}{\defcounter {refsection}{0}\relax }\@writefile{lof}{\contentsline {chapter}{\numberline {2}Description g\IeC {\'e}n\IeC {\'e}rale}{}{chapter.2}}
\@writefile{lof}{\defcounter {refsection}{0}\relax }\@writefile{lof}{\contentsline {figure}{\numberline {1}{\ignorespaces Diagramme des cas d'utilisations\relax }}{4}{figure.2.1}}
\newlabel{fig:use_case}{{1}{4}{\csuse {polytech@figure@caption}\relax }{figure.2.1}{}}
\zref@newlabel{fig:use_case}{\default{1}\page{4}\chapter{2}\chapternumber{7}\isappendix{}\issection{1}\isappendices{}\isequation{}\issubfloat{}}
\select@language{english}
\@writefile{toc}{\defcounter {refsection}{0}\relax }\@writefile{toc}{\select@language{english}}
\@writefile{lof}{\defcounter {refsection}{0}\relax }\@writefile{lof}{\select@language{english}}
\@writefile{lot}{\defcounter {refsection}{0}\relax }\@writefile{lot}{\select@language{english}}
\select@language{french}
\@writefile{toc}{\defcounter {refsection}{0}\relax }\@writefile{toc}{\select@language{french}}
\@writefile{lof}{\defcounter {refsection}{0}\relax }\@writefile{lof}{\select@language{french}}
\@writefile{lot}{\defcounter {refsection}{0}\relax }\@writefile{lot}{\select@language{french}}
\@writefile{lof}{\defcounter {refsection}{0}\relax }\@writefile{lof}{\contentsline {figure}{\numberline {2}{\ignorespaces Sch\IeC {\'e}ma du syst\IeC {\`e}me\relax }}{4}{figure.2.2}}
\newlabel{fig:systeme}{{2}{4}{\csuse {polytech@figure@caption}\relax }{figure.2.2}{}}
\zref@newlabel{fig:systeme}{\default{2}\page{4}\chapter{2}\chapternumber{7}\isappendix{}\issection{1}\isappendices{}\isequation{}\issubfloat{}}
\select@language{english}
\@writefile{toc}{\defcounter {refsection}{0}\relax }\@writefile{toc}{\select@language{english}}
\@writefile{lof}{\defcounter {refsection}{0}\relax }\@writefile{lof}{\select@language{english}}
\@writefile{lot}{\defcounter {refsection}{0}\relax }\@writefile{lot}{\select@language{english}}
\select@language{french}
\@writefile{toc}{\defcounter {refsection}{0}\relax }\@writefile{toc}{\select@language{french}}
\@writefile{lof}{\defcounter {refsection}{0}\relax }\@writefile{lof}{\select@language{french}}
\@writefile{lot}{\defcounter {refsection}{0}\relax }\@writefile{lot}{\select@language{french}}
\@writefile{toc}{\defcounter {refsection}{0}\relax }\@writefile{toc}{\contentsline {section}{\numberline {4}Structure g\IeC {\'e}n\IeC {\'e}rale du syst\IeC {\`e}me}{4}{section.2.4}}
\select@language{english}
\@writefile{toc}{\defcounter {refsection}{0}\relax }\@writefile{toc}{\select@language{english}}
\@writefile{lof}{\defcounter {refsection}{0}\relax }\@writefile{lof}{\select@language{english}}
\@writefile{lot}{\defcounter {refsection}{0}\relax }\@writefile{lot}{\select@language{english}}
\select@language{french}
\@writefile{toc}{\defcounter {refsection}{0}\relax }\@writefile{toc}{\select@language{french}}
\@writefile{lof}{\defcounter {refsection}{0}\relax }\@writefile{lof}{\select@language{french}}
\@writefile{lot}{\defcounter {refsection}{0}\relax }\@writefile{lot}{\select@language{french}}
\@writefile{lof}{\defcounter {refsection}{0}\relax }\@writefile{lof}{\contentsline {figure}{\numberline {3}{\ignorespaces Diagramme de classes\relax }}{5}{figure.2.3}}
\newlabel{fig:class_diagram}{{3}{5}{\csuse {polytech@figure@caption}\relax }{figure.2.3}{}}
\zref@newlabel{fig:class_diagram}{\default{3}\page{5}\chapter{2}\chapternumber{7}\isappendix{}\issection{1}\isappendices{}\isequation{}\issubfloat{}}
\select@language{english}
\@writefile{toc}{\defcounter {refsection}{0}\relax }\@writefile{toc}{\select@language{english}}
\@writefile{lof}{\defcounter {refsection}{0}\relax }\@writefile{lof}{\select@language{english}}
\@writefile{lot}{\defcounter {refsection}{0}\relax }\@writefile{lot}{\select@language{english}}
\select@language{french}
\@writefile{toc}{\defcounter {refsection}{0}\relax }\@writefile{toc}{\select@language{french}}
\@writefile{lof}{\defcounter {refsection}{0}\relax }\@writefile{lof}{\select@language{french}}
\@writefile{lot}{\defcounter {refsection}{0}\relax }\@writefile{lot}{\select@language{french}}
\@writefile{lof}{\defcounter {refsection}{0}\relax }\@writefile{lof}{\contentsline {figure}{\numberline {4}{\ignorespaces Mod\IeC {\`e}le conceptuel de donn\IeC {\'e}es\relax }}{5}{figure.2.4}}
\newlabel{fig:mcd}{{4}{5}{\csuse {polytech@figure@caption}\relax }{figure.2.4}{}}
\zref@newlabel{fig:mcd}{\default{4}\page{5}\chapter{2}\chapternumber{7}\isappendix{}\issection{1}\isappendices{}\isequation{}\issubfloat{}}
\select@language{english}
\@writefile{toc}{\defcounter {refsection}{0}\relax }\@writefile{toc}{\select@language{english}}
\@writefile{lof}{\defcounter {refsection}{0}\relax }\@writefile{lof}{\select@language{english}}
\@writefile{lot}{\defcounter {refsection}{0}\relax }\@writefile{lot}{\select@language{english}}
\select@language{french}
\@writefile{toc}{\defcounter {refsection}{0}\relax }\@writefile{toc}{\select@language{french}}
\@writefile{lof}{\defcounter {refsection}{0}\relax }\@writefile{lof}{\select@language{french}}
\@writefile{lot}{\defcounter {refsection}{0}\relax }\@writefile{lot}{\select@language{french}}
\select@language{english}
\@writefile{toc}{\defcounter {refsection}{0}\relax }\@writefile{toc}{\select@language{english}}
\@writefile{lof}{\defcounter {refsection}{0}\relax }\@writefile{lof}{\select@language{english}}
\@writefile{lot}{\defcounter {refsection}{0}\relax }\@writefile{lot}{\select@language{english}}
\select@language{french}
\@writefile{toc}{\defcounter {refsection}{0}\relax }\@writefile{toc}{\select@language{french}}
\@writefile{lof}{\defcounter {refsection}{0}\relax }\@writefile{lof}{\select@language{french}}
\@writefile{lot}{\defcounter {refsection}{0}\relax }\@writefile{lot}{\select@language{french}}
\BKM@entry{id=16,open,dest={636861707465722E33},srcline={153}}{5C3337365C3337375C303030335C3030305C3034305C303030495C3030306E5C303030745C303030655C303030725C303030665C303030615C303030635C303030655C303030735C3030305C3034305C303030655C303030785C303030745C303030655C303030725C3030306E5C303030655C30303073}
\BKM@entry{id=17,open,dest={73656374696F6E2E332E31},srcline={154}}{5C3337365C3337375C303030315C3030305C3034305C303030495C3030306E5C303030745C303030655C303030725C303030665C303030615C303030635C303030655C303030735C3030305C3034305C3030306D5C303030615C303030745C3030305C3335315C303030725C303030695C303030655C3030306C5C3030302F5C3030306C5C3030306F5C303030675C303030695C303030635C303030695C303030655C3030306C}
\BKM@entry{id=18,open,dest={73656374696F6E2E332E32},srcline={158}}{5C3337365C3337375C303030325C3030305C3034305C303030495C3030306E5C303030745C303030655C303030725C303030665C303030615C303030635C303030655C303030735C3030305C3034305C303030685C3030306F5C3030306D5C3030306D5C303030655C3030302F5C3030306D5C303030615C303030635C303030685C303030695C3030306E5C30303065}
\@writefile{toc}{\defcounter {refsection}{0}\relax }\@writefile{toc}{\contentsline {chapter}{\numberline {3}Interfaces externes}{6}{chapter.3}}
\@writefile{lof}{\defcounter {refsection}{0}\relax }\@writefile{lof}{\addvspace {10\p@ }}
\@writefile{lot}{\defcounter {refsection}{0}\relax }\@writefile{lot}{\addvspace {10\p@ }}
\@writefile{loa}{\defcounter {refsection}{0}\relax }\@writefile{loa}{\addvspace {10\p@ }}
\@writefile{toc}{\defcounter {refsection}{0}\relax }\@writefile{toc}{\contentsline {section}{\numberline {1}Interfaces mat\IeC {\'e}riel/logiciel}{6}{section.3.1}}
\@writefile{toc}{\defcounter {refsection}{0}\relax }\@writefile{toc}{\contentsline {section}{\numberline {2}Interfaces homme/machine}{6}{section.3.2}}
\BKM@entry{id=19,open,dest={73656374696F6E2E332E33},srcline={214}}{5C3337365C3337375C303030335C3030305C3034305C303030495C3030306E5C303030745C303030655C303030725C303030665C303030615C303030635C303030655C303030735C3030305C3034305C3030306C5C3030306F5C303030675C303030695C303030635C303030695C303030655C3030306C5C3030302F5C3030306C5C3030306F5C303030675C303030695C303030635C303030695C303030655C3030306C}
\@writefile{toc}{\defcounter {refsection}{0}\relax }\@writefile{toc}{\contentsline {section}{\numberline {3}Interfaces logiciel/logiciel}{8}{section.3.3}}
\BKM@entry{id=20,open,dest={636861707465722E34},srcline={219}}{5C3337365C3337375C303030345C3030305C3034305C303030535C303030705C3030305C3335315C303030635C303030695C303030665C303030695C303030635C303030615C303030745C303030695C3030306F5C3030306E5C303030735C3030305C3034305C303030665C3030306F5C3030306E5C303030635C303030745C303030695C3030306F5C3030306E5C3030306E5C303030655C3030306C5C3030306C5C303030655C30303073}
\BKM@entry{id=21,open,dest={73656374696F6E2E342E31},srcline={221}}{5C3337365C3337375C303030315C3030305C3034305C303030465C3030306F5C3030306E5C303030635C303030745C303030695C3030306F5C3030306E5C3030305C3034305C303030635C3030306F5C3030306E5C3030306E5C303030655C303030785C303030695C3030306F5C3030306E}
\BKM@entry{id=22,open,dest={73656374696F6E2E342E32},srcline={239}}{5C3337365C3337375C303030325C3030305C3034305C303030465C3030306F5C3030306E5C303030635C303030745C303030695C3030306F5C3030306E5C3030305C3034305C303030655C3030306E5C303030765C3030306F5C303030795C303030655C303030725C3030305C3034305C303030725C303030655C303030715C303030755C3030305C3335325C303030745C303030655C3030305C3034305C303030545C303030435C30303050}
\BKM@entry{id=23,open,dest={73656374696F6E2E342E33},srcline={259}}{5C3337365C3337375C303030335C3030305C3034305C303030465C3030306F5C3030306E5C303030635C303030745C303030695C3030306F5C3030306E5C3030305C3034305C303030615C3030306A5C3030306F5C303030755C303030745C303030655C303030725C3030305C3034305C303030755C3030306E5C303030655C3030305C3034305C303030705C303030695C3030305C3335305C303030635C30303065}
\@writefile{toc}{\defcounter {refsection}{0}\relax }\@writefile{toc}{\contentsline {chapter}{\numberline {4}Sp\IeC {\'e}cifications fonctionnelles}{9}{chapter.4}}
\@writefile{lof}{\defcounter {refsection}{0}\relax }\@writefile{lof}{\addvspace {10\p@ }}
\@writefile{lot}{\defcounter {refsection}{0}\relax }\@writefile{lot}{\addvspace {10\p@ }}
\@writefile{loa}{\defcounter {refsection}{0}\relax }\@writefile{loa}{\addvspace {10\p@ }}
\@writefile{toc}{\defcounter {refsection}{0}\relax }\@writefile{toc}{\contentsline {section}{\numberline {1}Fonction connexion}{9}{section.4.1}}
\@writefile{toc}{\defcounter {refsection}{0}\relax }\@writefile{toc}{\contentsline {section}{\numberline {2}Fonction envoyer requ\IeC {\^e}te TCP}{9}{section.4.2}}
\@writefile{toc}{\defcounter {refsection}{0}\relax }\@writefile{toc}{\contentsline {section}{\numberline {3}Fonction ajouter une pi\IeC {\`e}ce}{9}{section.4.3}}
\BKM@entry{id=24,open,dest={73656374696F6E2E342E34},srcline={280}}{5C3337365C3337375C303030345C3030305C3034305C303030465C3030306F5C3030306E5C303030635C303030745C303030695C3030306F5C3030306E5C3030305C3034305C303030735C303030755C303030705C303030705C303030725C303030695C3030306D5C303030655C303030725C3030305C3034305C303030755C3030306E5C303030655C3030305C3034305C303030705C303030695C3030305C3335305C303030635C30303065}
\BKM@entry{id=25,open,dest={73656374696F6E2E342E35},srcline={300}}{5C3337365C3337375C303030355C3030305C3034305C303030465C3030306F5C3030306E5C303030635C303030745C303030695C3030306F5C3030306E5C3030305C3034305C303030615C3030306A5C3030306F5C303030755C303030745C303030655C303030725C3030305C3034305C303030755C3030306E5C3030305C3034305C3030305C3335315C303030715C303030755C303030695C303030705C303030655C3030306D5C303030655C3030306E5C30303074}
\BKM@entry{id=26,open,dest={73656374696F6E2E342E36},srcline={320}}{5C3337365C3337375C303030365C3030305C3034305C303030465C3030306F5C3030306E5C303030635C303030745C303030695C3030306F5C3030306E5C3030305C3034305C303030735C303030755C303030705C303030705C303030725C303030695C3030306D5C303030655C303030725C3030305C3034305C303030755C3030306E5C3030305C3034305C3030305C3335315C303030715C303030755C303030695C303030705C303030655C3030306D5C303030655C3030306E5C30303074}
\BKM@entry{id=27,open,dest={73656374696F6E2E342E37},srcline={340}}{5C3337365C3337375C303030375C3030305C3034305C303030465C3030306F5C3030306E5C303030635C303030745C303030695C3030306F5C3030306E5C3030305C3034305C303030725C3030305C3335315C303030635C303030755C303030705C3030305C3335315C303030725C303030615C303030745C303030695C3030306F5C3030306E5C3030305C3034305C303030645C303030655C303030735C3030305C3034305C3030306E5C3030306F5C303030745C303030695C303030665C303030695C303030635C303030615C303030745C303030695C3030306F5C3030306E5C30303073}
\@writefile{toc}{\defcounter {refsection}{0}\relax }\@writefile{toc}{\contentsline {section}{\numberline {4}Fonction supprimer une pi\IeC {\`e}ce}{10}{section.4.4}}
\@writefile{toc}{\defcounter {refsection}{0}\relax }\@writefile{toc}{\contentsline {section}{\numberline {5}Fonction ajouter un \IeC {\'e}quipement}{10}{section.4.5}}
\@writefile{toc}{\defcounter {refsection}{0}\relax }\@writefile{toc}{\contentsline {section}{\numberline {6}Fonction supprimer un \IeC {\'e}quipement}{10}{section.4.6}}
\BKM@entry{id=28,open,dest={73656374696F6E2E342E38},srcline={357}}{5C3337365C3337375C303030385C3030305C3034305C303030465C3030306F5C3030306E5C303030635C303030745C303030695C3030306F5C3030306E5C3030305C3034305C303030725C3030305C3335315C303030635C303030755C303030705C3030305C3335315C303030725C303030615C303030745C303030695C3030306F5C3030306E5C3030305C3034305C303030645C303030655C303030735C3030305C3034305C303030455C303030715C303030755C303030695C303030705C303030655C3030306D5C303030655C3030306E5C303030745C3030305C3034305C303030655C3030306E5C3030305C3034305C303030665C3030306F5C3030306E5C303030635C303030745C303030695C3030306F5C3030306E5C3030305C3034305C303030645C303030655C3030305C3034305C3030306C5C303030615C3030305C3034305C303030635C303030615C303030745C3030305C3335315C303030675C3030306F5C303030725C303030695C30303065}
\BKM@entry{id=29,open,dest={73656374696F6E2E342E39},srcline={374}}{5C3337365C3337375C303030395C3030305C3034305C303030465C3030306F5C3030306E5C303030635C303030745C303030695C3030306F5C3030306E5C3030305C3034305C303030725C3030305C3335315C303030635C303030755C303030705C3030305C3335315C303030725C303030615C303030745C303030695C3030306F5C3030306E5C3030305C3034305C303030645C303030275C303030755C3030306E5C303030655C3030305C3034305C303030705C303030695C3030305C3335305C303030635C303030655C3030305C3034305C303030655C3030306E5C3030305C3034305C303030665C3030306F5C3030306E5C303030635C303030745C303030695C3030306F5C3030306E5C3030305C3034305C303030645C303030275C303030755C3030306E5C3030305C3034305C303030655C303030715C303030755C303030695C303030705C303030655C3030306D5C303030655C3030306E5C30303074}
\BKM@entry{id=30,open,dest={73656374696F6E2E342E3130},srcline={393}}{5C3337365C3337375C303030315C303030305C3030305C3034305C303030465C3030306F5C3030306E5C303030635C303030745C303030695C3030306F5C3030306E5C3030305C3034305C303030725C3030305C3335315C303030635C303030755C303030705C3030305C3335315C303030725C303030615C303030745C303030695C3030306F5C3030306E5C3030305C3034305C303030645C303030655C303030735C3030305C3034305C303030705C303030695C3030305C3335305C303030635C303030655C30303073}
\@writefile{toc}{\defcounter {refsection}{0}\relax }\@writefile{toc}{\contentsline {section}{\numberline {7}Fonction r\IeC {\'e}cup\IeC {\'e}ration des notifications}{11}{section.4.7}}
\@writefile{toc}{\defcounter {refsection}{0}\relax }\@writefile{toc}{\contentsline {section}{\numberline {8}Fonction r\IeC {\'e}cup\IeC {\'e}ration des Equipement en fonction de la cat\IeC {\'e}gorie}{11}{section.4.8}}
\@writefile{toc}{\defcounter {refsection}{0}\relax }\@writefile{toc}{\contentsline {section}{\numberline {9}Fonction r\IeC {\'e}cup\IeC {\'e}ration d'une pi\IeC {\`e}ce en fonction d'un equipement}{11}{section.4.9}}
\@writefile{toc}{\defcounter {refsection}{0}\relax }\@writefile{toc}{\contentsline {section}{\numberline {10}Fonction r\IeC {\'e}cup\IeC {\'e}ration des pi\IeC {\`e}ces}{11}{section.4.10}}
\BKM@entry{id=31,open,dest={636861707465722E35},srcline={410}}{5C3337365C3337375C303030355C3030305C3034305C303030535C303030705C3030305C3335315C303030635C303030695C303030665C303030695C303030635C303030615C303030745C303030695C3030306F5C3030306E5C303030735C3030305C3034305C3030306E5C3030306F5C3030306E5C3030305C3034305C303030665C3030306F5C3030306E5C303030635C303030745C303030695C3030306F5C3030306E5C3030306E5C303030655C3030306C5C3030306C5C303030655C30303073}
\BKM@entry{id=32,open,dest={73656374696F6E2E352E31},srcline={411}}{5C3337365C3337375C303030315C3030305C3034305C303030435C3030306F5C3030306E5C303030745C303030725C303030615C303030695C3030306E5C303030745C303030655C303030735C3030305C3034305C303030645C303030655C3030305C3034305C303030645C3030305C3335315C303030765C303030655C3030306C5C3030306F5C303030705C303030705C303030655C3030306D5C303030655C3030306E5C303030745C3030305C3034305C303030655C303030745C3030305C3034305C303030635C3030306F5C3030306E5C303030635C303030655C303030705C303030745C303030695C3030306F5C3030306E}
\BKM@entry{id=33,open,dest={73656374696F6E2E352E32},srcline={426}}{5C3337365C3337375C303030325C3030305C3034305C303030435C3030306F5C3030306E5C303030745C303030725C303030615C303030695C3030306E5C303030745C303030655C303030735C3030305C3034305C303030645C303030655C3030305C3034305C303030665C3030306F5C3030306E5C303030635C303030745C303030695C3030306F5C3030306E5C3030306E5C303030655C3030306D5C303030655C3030306E5C303030745C3030305C3034305C303030655C303030745C3030305C3034305C303030645C3034305C3033315C303030655C303030785C303030705C3030306C5C3030306F5C303030695C303030745C303030615C303030745C303030695C3030306F5C3030306E}
\BKM@entry{id=34,open,dest={73756273656374696F6E2E352E322E31},srcline={427}}{5C3337365C3337375C303030325C3030302E5C303030315C3030305C3034305C303030505C303030655C303030725C303030665C3030306F5C303030725C3030306D5C303030615C3030306E5C303030635C303030655C30303073}
\@writefile{toc}{\defcounter {refsection}{0}\relax }\@writefile{toc}{\contentsline {chapter}{\numberline {5}Sp\IeC {\'e}cifications non fonctionnelles}{13}{chapter.5}}
\@writefile{lof}{\defcounter {refsection}{0}\relax }\@writefile{lof}{\addvspace {10\p@ }}
\@writefile{lot}{\defcounter {refsection}{0}\relax }\@writefile{lot}{\addvspace {10\p@ }}
\@writefile{loa}{\defcounter {refsection}{0}\relax }\@writefile{loa}{\addvspace {10\p@ }}
\@writefile{toc}{\defcounter {refsection}{0}\relax }\@writefile{toc}{\contentsline {section}{\numberline {1}Contraintes de d\IeC {\'e}veloppement et conception}{13}{section.5.1}}
\@writefile{toc}{\defcounter {refsection}{0}\relax }\@writefile{toc}{\contentsline {section}{\numberline {2}Contraintes de fonctionnement et d\IeC {\textquoteright }exploitation}{13}{section.5.2}}
\@writefile{toc}{\defcounter {refsection}{0}\relax }\@writefile{toc}{\contentsline {subsection}{\numberline {2.1}Performances}{13}{subsection.5.2.1}}
\BKM@entry{id=35,open,dest={73756273656374696F6E2E352E322E32},srcline={444}}{5C3337365C3337375C303030325C3030302E5C303030325C3030305C3034305C303030435C303030615C303030705C303030615C303030635C303030695C303030745C3030305C3335315C30303073}
\BKM@entry{id=36,open,dest={73756273656374696F6E2E352E322E33},srcline={455}}{5C3337365C3337375C303030325C3030302E5C303030335C3030305C3034305C303030535C3030305C3335315C303030635C303030755C303030725C303030695C303030745C3030305C333531}
\@writefile{toc}{\defcounter {refsection}{0}\relax }\@writefile{toc}{\contentsline {subsection}{\numberline {2.2}Capacit\IeC {\'e}s}{14}{subsection.5.2.2}}
\@writefile{toc}{\defcounter {refsection}{0}\relax }\@writefile{toc}{\contentsline {subsection}{\numberline {2.3}S\IeC {\'e}curit\IeC {\'e}}{14}{subsection.5.2.3}}
\BKM@entry{id=37,open,dest={636861707465722E36},srcline={460}}{5C3337365C3337375C303030365C3030305C3034305C3030305C3331315C303030745C303030615C303030705C303030655C303030735C3030305C3034305C303030615C303030635C303030635C3030306F5C3030306D5C303030705C3030306C5C303030695C303030655C30303073}
\BKM@entry{id=38,open,dest={73656374696F6E2E362E31},srcline={461}}{5C3337365C3337375C303030315C3030305C3034305C3030304D5C3030306F5C303030645C3030305C3335315C3030306C5C303030695C303030735C303030615C303030745C303030695C3030306F5C3030306E}
\BKM@entry{id=39,open,dest={73656374696F6E2E362E32},srcline={467}}{5C3337365C3337375C303030325C3030305C3034305C303030445C3030305C3335315C303030765C303030655C3030306C5C3030306F5C303030705C303030705C303030655C3030306D5C303030655C3030306E5C30303074}
\BKM@entry{id=40,open,dest={73756273656374696F6E2E362E322E31},srcline={469}}{5C3337365C3337375C303030325C3030302E5C303030315C3030305C3034305C303030495C3030306E5C303030745C303030655C303030725C303030665C303030615C303030635C303030655C30303073}
\BKM@entry{id=41,open,dest={73756273656374696F6E2E362E322E32},srcline={476}}{5C3337365C3337375C303030325C3030302E5C303030325C3030305C3034305C3030304D5C3030306F5C303030645C3030305C3335305C3030306C5C303030655C3030305C3034305C303030655C303030745C3030305C3034305C303030665C3030306F5C3030306E5C303030635C303030745C303030695C3030306F5C3030306E5C3030306E5C303030615C3030306C5C303030695C303030745C3030305C3335315C30303073}
\@writefile{toc}{\defcounter {refsection}{0}\relax }\@writefile{toc}{\contentsline {chapter}{\numberline {6}\IeC {\'E}tapes accomplies}{15}{chapter.6}}
\@writefile{lof}{\defcounter {refsection}{0}\relax }\@writefile{lof}{\addvspace {10\p@ }}
\@writefile{lot}{\defcounter {refsection}{0}\relax }\@writefile{lot}{\addvspace {10\p@ }}
\@writefile{loa}{\defcounter {refsection}{0}\relax }\@writefile{loa}{\addvspace {10\p@ }}
\@writefile{toc}{\defcounter {refsection}{0}\relax }\@writefile{toc}{\contentsline {section}{\numberline {1}Mod\IeC {\'e}lisation}{15}{section.6.1}}
\@writefile{toc}{\defcounter {refsection}{0}\relax }\@writefile{toc}{\contentsline {section}{\numberline {2}D\IeC {\'e}veloppement}{15}{section.6.2}}
\@writefile{toc}{\defcounter {refsection}{0}\relax }\@writefile{toc}{\contentsline {subsection}{\numberline {2.1}Interfaces}{15}{subsection.6.2.1}}
\@writefile{toc}{\defcounter {refsection}{0}\relax }\@writefile{toc}{\contentsline {subsection}{\numberline {2.2}Mod\IeC {\`e}le et fonctionnalit\IeC {\'e}s}{15}{subsection.6.2.2}}
\BKM@entry{id=42,open,dest={73656374696F6E2E362E33},srcline={481}}{5C3337365C3337375C303030335C3030305C3034305C303030545C303030655C303030735C30303074}
\@writefile{toc}{\defcounter {refsection}{0}\relax }\@writefile{toc}{\contentsline {section}{\numberline {3}Test}{16}{section.6.3}}
\BKM@entry{id=43,open,dest={6C617374706167652E30},srcline={543}}{5C3337365C3337375C303030445C303030655C303030725C3030306E5C303030695C3030305C3335305C303030725C303030655C3030305C3034305C303030705C303030615C303030675C30303065}
\newlabel{polytech@lastpage@start}{{3}{17}{Test}{section.6.3}{}}
\zref@newlabel{polytech@lastpage@start}{\default{3}\page{17}\chapter{6}\chapternumber{11}\isappendix{}\issection{1}\isappendices{}\isequation{}\issubfloat{}}
\select@language{english}
\@writefile{toc}{\defcounter {refsection}{0}\relax }\@writefile{toc}{\select@language{english}}
\@writefile{lof}{\defcounter {refsection}{0}\relax }\@writefile{lof}{\select@language{english}}
\@writefile{lot}{\defcounter {refsection}{0}\relax }\@writefile{lot}{\select@language{english}}
\select@language{french}
\@writefile{toc}{\defcounter {refsection}{0}\relax }\@writefile{toc}{\select@language{french}}
\@writefile{lof}{\defcounter {refsection}{0}\relax }\@writefile{lof}{\select@language{french}}
\@writefile{lot}{\defcounter {refsection}{0}\relax }\@writefile{lot}{\select@language{french}}
\select@language{french}
\@writefile{toc}{\defcounter {refsection}{0}\relax }\@writefile{toc}{\select@language{french}}
\@writefile{lof}{\defcounter {refsection}{0}\relax }\@writefile{lof}{\select@language{french}}
\@writefile{lot}{\defcounter {refsection}{0}\relax }\@writefile{lot}{\select@language{french}}
\select@language{french}
\@writefile{toc}{\defcounter {refsection}{0}\relax }\@writefile{toc}{\select@language{french}}
\@writefile{lof}{\defcounter {refsection}{0}\relax }\@writefile{lof}{\select@language{french}}
\@writefile{lot}{\defcounter {refsection}{0}\relax }\@writefile{lot}{\select@language{french}}
\select@language{english}
\@writefile{toc}{\defcounter {refsection}{0}\relax }\@writefile{toc}{\select@language{english}}
\@writefile{lof}{\defcounter {refsection}{0}\relax }\@writefile{lof}{\select@language{english}}
\@writefile{lot}{\defcounter {refsection}{0}\relax }\@writefile{lot}{\select@language{english}}
\select@language{french}
\@writefile{toc}{\defcounter {refsection}{0}\relax }\@writefile{toc}{\select@language{french}}
\@writefile{lof}{\defcounter {refsection}{0}\relax }\@writefile{lof}{\select@language{french}}
\@writefile{lot}{\defcounter {refsection}{0}\relax }\@writefile{lot}{\select@language{french}}
\newlabel{polytech@lastpage@end}{{3}{17}{Test}{section*.6}{}}
\zref@newlabel{polytech@lastpage@end}{\default{3}\page{17}\chapter{6}\chapternumber{11}\isappendix{}\issection{1}\isappendices{}\isequation{}\issubfloat{}}
\select@language{english}
\@writefile{toc}{\defcounter {refsection}{0}\relax }\@writefile{toc}{\select@language{english}}
\@writefile{lof}{\defcounter {refsection}{0}\relax }\@writefile{lof}{\select@language{english}}
\@writefile{lot}{\defcounter {refsection}{0}\relax }\@writefile{lot}{\select@language{english}}
\select@language{french}
\@writefile{toc}{\defcounter {refsection}{0}\relax }\@writefile{toc}{\select@language{french}}
\@writefile{lof}{\defcounter {refsection}{0}\relax }\@writefile{lof}{\select@language{french}}
\@writefile{lot}{\defcounter {refsection}{0}\relax }\@writefile{lot}{\select@language{french}}
\select@language{english}
\@writefile{toc}{\defcounter {refsection}{0}\relax }\@writefile{toc}{\select@language{english}}
\@writefile{lof}{\defcounter {refsection}{0}\relax }\@writefile{lof}{\select@language{english}}
\@writefile{lot}{\defcounter {refsection}{0}\relax }\@writefile{lot}{\select@language{english}}
\select@language{french}
\@writefile{toc}{\defcounter {refsection}{0}\relax }\@writefile{toc}{\select@language{french}}
\@writefile{lof}{\defcounter {refsection}{0}\relax }\@writefile{lof}{\select@language{french}}
\@writefile{lot}{\defcounter {refsection}{0}\relax }\@writefile{lot}{\select@language{french}}
\select@language{english}
\@writefile{toc}{\defcounter {refsection}{0}\relax }\@writefile{toc}{\select@language{english}}
\@writefile{lof}{\defcounter {refsection}{0}\relax }\@writefile{lof}{\select@language{english}}
\@writefile{lot}{\defcounter {refsection}{0}\relax }\@writefile{lot}{\select@language{english}}
\select@language{french}
\@writefile{toc}{\defcounter {refsection}{0}\relax }\@writefile{toc}{\select@language{french}}
\@writefile{lof}{\defcounter {refsection}{0}\relax }\@writefile{lof}{\select@language{french}}
\@writefile{lot}{\defcounter {refsection}{0}\relax }\@writefile{lot}{\select@language{french}}
\newlabel{LastPage}{{}{17}{}{page.17}{}}
\providecommand\totalcount@set[2]{}
\totalcount@set{figure}{4}
\totalcount@set{table}{0}
\totalcount@set{lstlisting}{0}
\totalcount@set{algocf}{0}
\pagesLTS@ifcounter{pagesLTS.arabic.1.local.cnt}
\setcounter{pagesLTS.arabic.1.local.cnt}{17}
\gdef\pagesLTS.lastpage{17}
\setcounter{pagesLTS.pagenr}{24}
\newlabel{VeryLastPage}{{}{17}{}{page.17}{}}
\newlabel{pagesLTS.arabic.1}{{}{17}{}{page.17}{}}
\newlabel{pagesLTS.arabic.1.local}{{}{17}{}{page.17}{}}
\newlabel{pagesLTS.arabic}{{}{17}{}{page.17}{}}
\newlabel{pagesLTS.arabic.local}{{}{17}{}{page.17}{}}
\newlabel{LastPages}{{}{24}{}{page.17}{}}
